[
	{
		"title": "",
		"icon": "game",
		"image": "http://tonyandtanyaonline.com/bensimms.co.uk/assets/img/PennyPush.gif",
		"description": "After returning from a wonderful holiday in the Isle Of Wight I built this game for my daughter, inspired by the push penny arcades, this game has a simple concept of collecting coins for points. The user has to simply time and place their tokens to drive forward big drops and collect new prizes as they arrive. ",
		"button": "http://www.bensimms.co.uk/beta/Penny%20Push/",
		"date": "2018 August"
	},
    {
		"title": "Penny Push",
		"icon": "game",
		"image": "http://tonyandtanyaonline.com/bensimms.co.uk/assets/img/PennyPush.gif",
		"description": "After returning from a wonderful holiday in the Isle Of Wight I built this game for my daughter, inspired by the push penny arcades, this game has a simple concept of collecting coins for points. The user has to simply time and place their tokens to drive forward big drops and collect new prizes as they arrive. ",
		"button": "http://www.bensimms.co.uk/beta/Penny%20Push/",
		"date": "2018 August"
	},
    {
		"title": "Convert To Pixels",
		"icon": "app",
		"image": "http://tonyandtanyaonline.com/bensimms.co.uk/assets/img/ConertToPixels.gif",
		"description": "I built this tool because I wanted a quick way to convert some images into pixel art for one of my games, you can download it yourself below, control the 'pixelation' by holing 'p' which increases the pixel size and and 'l' to lower. Images can be exported by pressing 's' ",
		"button": "http://www.bensimms.co.uk/downloads/Convert2Pixel.zip",
		"date": "2018 August"
	},
{
		"title": "Thieving Pixels",
		"icon": "website",
		"image": "http://www.bensimms.co.uk/thievingpixels/assets/img/Square.png",
		"description": "This site presents a selected number of my games for the attention of Publishers. At this moment in time, I want to focus my attention on making awesome hyper-casual games! ",
		"button": "http://www.bensimms.co.uk/thievingpixels/",
		"date": "2018 July"
	},
{
		"title": "Tweet Live TV",
		"icon": "website",
		"image": "https://bitbucket.org/zerosimms/milestones-content/raw/df79d315c95c4294d39b0e4a96ffcef34d09f9bc/content/tltv.png",
		"description": "Tweet Live TV was a web app I built that utilised the Twitter stream to capture Tweets in real-time. Users could then post comments and complete other basic Twitter functions that gave a  community feel to the entire site. This was a POC for a new platform I had in mind that would allow event organisers to create 'Twitter chat rooms'. ",
		"button": "http://www.tweetlivetv.com",
		"date": "2018 April"
	},
	{
		"title": "Presentation - Emotional Intelligence",
		"icon": "location",
		"image": "https://bitbucket.org/zerosimms/milestones-content/raw/c08a2eab1466aa80cbf5bcf75b70b9fce86c46a4/content/eq.jpeg",
		"description": "After a year of research and practice (not full time obviously) I decided to share my experience and understanding of Emotional Intelligence to a small audience at Gamesys.",
		"button": "https://docs.google.com/presentation/d/1h75jg_ocNsZ5mCDCPVYSO8-GKn63DzpiGtJhVfC6i2w/edit?usp=sharing",
		"date": "2018 March"
	},
	{
		"title": "Tweet Intelligence",
		"icon": "app",
		"image": "https://bitbucket.org/zerosimms/milestones-content/raw/df79d315c95c4294d39b0e4a96ffcef34d09f9bc/content/tweetIntelligence.png",
		"description": "This app was designed to capture data from Twitter and it allowed the user to organise the feedback by most followed. The data could also be downloaded as a CSV file to get further insight",
		"button": "http://tonyandtanyaonline.com/",
		"date": "2018 March"
	},
	{
		"title": "Workshops - Launch Pad Innovation Framework",
		"icon": "location",
		"image": "https://bitbucket.org/zerosimms/milestones-content/raw/59dab72dc70d020983a9ddfa67788ec0c2359e61/content/launchpad.jpg",
		"description": "Launchpad was an innovation framework I created, it was designed to take people through the experience of generating an idea and creating a prototype. I had been running this as Meetup for well over a year during which I took a lean approach, adapting parts that didn't work from feedback collected.  The presentations led me into new fields of creating tools to help with the process of prototyping",
		"date": "2017 November",
		"button": "https://drive.google.com/drive/folders/0B06zJZGuyLpbeU5NdmV2TnlveWs?usp=sharing"
	},
	{
		"title": "Like",
		"icon": "picture",
		"image": "https://img00.deviantart.net/decd/i/2017/183/0/d/miss_understood_by_zerosimms-dbeu3fa.png",
		"description": "This was a digital art image that I simply called - Like!",
		"date": "2017 July",
		"button": "https://zerosimms.deviantart.com/art/Miss-understood-690046678"
	},
	{
		"title": "Jungle Gems",
		"icon": "game",
		"image": "https://bitbucket.org/zerosimms/milestones-content/raw/1a59421c121b3137c61f83ea55ee983edfb2c0c8/content/jungle.png",
		"description": "This game was released on Android and is a 'pick, match and drop' type of game. The challenge laid by trying to keep the rising blocks from reaching the top. To create this game I used a number of tools such as Stencyl and Affinity Designer ",
		"date": "2017 Jan",
		"button": "https://play.google.com/store/apps/details?id=co.uk.simms.junglegems"
	},
	{
		"title": "Skeletor",
		"icon": "website",
		"image": "https://bitbucket.org/zerosimms/milestones-content/raw/671bacf7d1b7c949df3536506d28b45b6d17294d/content/skeletor.png",
		"description": "Taking the philosophy of making the complicated, simple. This website built native Android apps out of any website in a similar fashion to Cordova, the difference being I only required three details, 1: the website, 2: a theme colour and 3: an app Icon. Although it all worked and I still use it, I never got round to creating a front end for it.",
		"date": "2017 October"
	},
	{
		"title": "Social Lite",
		"icon": "app",
		"image": "https://bitbucket.org/zerosimms/milestones-content/raw/6da59e3a099d3702050ea732befde9260378115f/content/social.png",
		"description": "This was an Android native app that I built, it was designed to take a number of social networks and integrate them into one app using the networks web app. This made my app tiny, fast and really simple to use. The final size of the app was less than 2mb and included all the popular social apps! I wanted to hit an audience that was considerate of their data usage, storage and app permissions.",
		"date": "2016 April",
		"button": "https://play.google.com/store/apps/details?id=uk.co.bensimms.sociallite"
	},
	{
		"title": "Brew Boy",
		"icon": "device",
		"image": "https://bitbucket.org/zerosimms/milestones-content/raw/64939f125cfc084443812410d6628135bd93142d/content/brewboy.png",
		"description": "I built this device using an Arduino mini, old Nokia 5510 screen and two thermometers to aid in the process of homebrewing. I had a problem when brewing whereby I found myself constantly swapping my one thermometer between boils, so I built this device to help. If you're interested, I put all the kit and instructions up on Hackaday.",
		"date": "2015 November",
		"button": "https://hackaday.io/project/8430-brew-b0y"
	},
	{
		"title": "Southern Scuba",
		"icon": "website",
		"image": "https://bitbucket.org/zerosimms/milestones-content/raw/9aae32896eacb510d9c55f941c0ccd9b6b985dc0/content/southernscuba.png",
		"description": "The Southern Scuba website was an interesting project, in that, it had to be built using Wordpress (the platform the owners felt most comfortable with). This project involved setting up the website, migrating old content, adding new content and even redesigning thier logo for the school.",
		"date": "2015 September",
		"button": "http://www.southernscuba.co.uk/"
	},
	{
		"title": "Kamdum Android App",
		"icon": "app",
		"image": "https://bitbucket.org/zerosimms/milestones-content/raw/6f76d4ff395abb2cee2d6f0a0ae3cf3dfda98df8/content/kamdumApp.png",
		"description": "This app was simply one of my websites wrapped up in a web-view then packaged as an Android app. The purpose of this app was to get a presence on the Andriod play store, however, It wasn't as straightforward as I'd imagined it would be, there were a few 'gotchas' with the web-view, for example, rotating the screen would not re-render the website, tapping a volume button would cause the app to exit and not all the content sized correctly. Once I finally managed to resolve these issues I had a nice looking app, it then when live where no-one downloaded it :) ",
		"date": "2014 May",
		"button": "https://play.google.com/store/apps/details?id=uk.co.bensimms.kamdum"
	},
	{
		"title": "Sub Attack",
		"icon": "game",
		"image": "https://bitbucket.org/zerosimms/milestones-content/raw/f19ae3b79d71a8fb89a4db1b00b1c6c966b4667e/content/sub.png",
		"description": "This was a game I made for Android, it took advantage of the phone's gyroscope for interactivity, the concept of the game was inspired by an older game, I put my own unique twists on it, the most noticeable was a feature called 'air support' this feature made the game hectic and a bit more challenging. On another note, It was the first time I tried selling a game on the Play store and although I made a few sales, I never got to retire :) ",
		"date": "2014 Apr",
		"button": "https://play.google.com/store/apps/details?id=co.uk.bensimms.subattackfree"
	},
	{
		"title": "Dungeon Drop",
		"icon": "game",
		"image": "https://bitbucket.org/zerosimms/milestones-content/raw/59a1700070c07976037d4dd2995773e5a42a01eb/content/looter.png",
		"description": "This game was inspired by Super Crate box, I really wanted to create an old-school game, one that was focused on mastering timings and precision, built in Stencyl I was very happy with the final product",
		"date": "2014 March",
		"button": "http://www.freegamesmax.cz/akcni/dungeon-drop"
	},
	{
		"title": "Super Punch Bag",
		"icon": "game",
		"image": "https://bitbucket.org/zerosimms/milestones-content/raw/ceca57bec42a0d50c5f36a0097b8b756a535f413/content/punchbag.png",
		"description": "This was my second attempt at making a game that frustrated players enough to try again. The concept was simple and the game was frustrating, interestingly, this game attracted more plays than Power Glove Monkey, but fewer comments. I could only assume that players prefered the art style of this game but less so the concept. That being said, I was still proud of this game and even set a cash prize on reddit for the highest score",
		"date": "2014 March",
		"button": "https://play.google.com/store/apps/details?id=co.uk.bensimms.superpunchbag"
	},
	{
		"title": "Power Glove Monkey",
		"icon": "game",
		"image": "https://bitbucket.org/zerosimms/milestones-content/raw/ceca57bec42a0d50c5f36a0097b8b756a535f413/content/powerglove.png",
		"description": "In the heat of the 'Flappy Birds' excitement, I challenged myself to make a game as equally frustrating and challenging. The requirements for the game were simple, get players pressing 'again' as soon as they died. This game received the most feedback from players who genuinely enjoyed the concept",
		"date": "2014 Feb",
		"button": "https://play.google.com/store/apps/details?id=co.uk.bensimms.powerglovemonkey"
	},
	{
		"title": "Gameboy Visualiser",
		"icon": "app",
		"image": "https://bitbucket.org/zerosimms/milestones-content/raw/64939f125cfc084443812410d6628135bd93142d/content/GameBoyMe.gif",
		"description": "A Java application that uses a webcam track motion, it then converts the image into a Gameboy filter. ",
		"date": "2014 August",
		"button": "https://web.archive.org/web/20150314061846/http://www.bensimms.co.uk:80/the-gameboy-effect"
	},
	{
		"title": "Virtual Boy Visualiser",
		"icon": "app",
		"image": "https://bitbucket.org/zerosimms/milestones-content/raw/64939f125cfc084443812410d6628135bd93142d/content/VirtualBoyMe.gif",
		"description": "Same as my Gameboy visualiser, but this time looking like a headache-inducing, virtual boy!",
		"date": "2014 August",
		"button": "https://web.archive.org/web/20150312002353/http://www.bensimms.co.uk:80/virtual-boy-visualiser/"
	},
	{
		"title": "Lord, give me colours",
		"icon": "app",
		"image": "https://media.licdn.com/media-proxy/ext?w=200&h=300&f=n&hash=vPDeuQhNmTqA6NWFzj%2FlafspqAg%3D&ora=1%2CaFBCTXdkRmpGL2lvQUFBPQ%2CxAVta9Er0Ua9hFUYxxIy6aOMvgGz6wlSTs3LEi3yBHvur4vEfzKpJZiOLfG-pl0XfDMBlxswYu2oQHjiEpOia9S4",
		"description": "Lord, give me colours, was a simple application idea I had to flash a number of colours to the user every two seconds, the user could then tap to 'capture' the colours in a bid to inspire creativity.  What started out as a 'simple' idea actually introduced a number of challenges and learning curves along the way, specifically accessing SD cards on a mobile device, creating folders, saving, and resizing. All very good experience however",
		"date": "2014 July"
	},
	{
		"title": "Automation - Robot Arm",
		"icon": "device",
		"image": "https://bitbucket.org/zerosimms/milestones-content/raw/4564e97dfe838280162061ca90d884e2f45e4f98/content/robotArm.png",
		"description": "Using hardware including the Raspberry Pi, stepper motor and old computer components, 2 of us created a robot arm that could rotate a mobile device left and right. The goal of this project was to integrate the arm and all communications into the testing automation framework.",
		"date": "2013 December",
		"button": "https://www.youtube.com/watch?v=PFPOCgCKo9E"
	},
	{
		"title": "Kamdum",
		"icon": "website",
		"image": "https://media.licdn.com/media-proxy/ext?w=800&h=800&f=n&hash=JsJnLAWRjgT1X2E4hpEv%2FGqcXPA%3D&ora=1%2CaFBCTXdkRmpGL2lvQUFBPQ%2CxAVta9Er0Vinkhwfjw8177yE41y87UNCVordEGXyD3u0qYrdf3btLZHXfbaluVtFfyUckQVnfPL5E2XoD5G-K4rvLNVwgpSxdo24ZxUBbFImi24",
		"description": "The idea of this website was to create a social yet private environment for people to share and communicate in pure privacy. The website allows users to create groups that are private, allowing the creator of the group to select who they want to join the group ",
		"button": "https://www.linkedin.com/in/ben-simms-9a73351/",
		"date": "2013 Nov"
	},
	{
		"title": "Penny Arcade",
		"icon": "game",
		"image": "https://bitbucket.org/zerosimms/milestones-content/raw/master/content/pennyArcade.jpeg",
		"description": "This was my first mobile game, designed for iOS, it utilised the 2d box physics engine to create a penny arcade machine. Players were challenged to collect falling gold coins and avoid red ones. The biggest challenge for me with this game was getting it live on the App Store, preparing assets, copy and certificates, it was an eye opener",
		"button": "https://www.linkedin.com/in/ben-simms-9a73351/detail/treasury/summary/?entityUrn=urn%3Ali%3Afs_treasuryMedia%3A(ACoAAAA6Dk8BK9Ox2pKUCAdQFy7KZ_l6NIrw3h8%2C50045958)&lipi=urn%3Ali%3Apage%3Ad_flagship3_profile_view_base_treasury%3BUE4yeBHXR%2B6cLAdnns8yOQ%3D%3D&licu=urn%3Ali%3Acontrol%3Ad_flagship3_profile_view_base_treasury-treasury_thumbnail_cell",
		"date": "2013 Feb"
	},
	{
		"title": "Serif Interview",
		"icon": "game",
		"image": "https://bitbucket.org/zerosimms/milestones-content/raw/96d7ccf506d83474aab7966c31e3947c73edfef9/content/serif.png",
		"description": "Serif somehow found out I was making games and using Drawplus (one of their products) for my art. They contacted me to do an interview, I was rather proud of this achievement",
		"date": "2012 Nov",
		"button": "https://web.archive.org/web/20160322031356/http://www.serif.com/blog/serif-user-ben-creates-video-games-with-drawplus/"
	},
	{
		"title": "Game of the Week",
		"icon": "game",
		"image": "https://web.archive.org/web/20111015143104im_/http://blog.stencyl.com/wp-content/uploads/2011/09/emeralds-300x256.png",
		"description": "I was excited to be asked for an interview on my first 2d game which made it into Stencyl's game of the week blog.",
		"date": "2011 Sep",
		"button": "https://web.archive.org/web/20111015143104/http://blog.stencyl.com/?p=158"
	},
	{
		"title": "Emerald Beach",
		"icon": "game",
		"image": "https://bitbucket.org/zerosimms/milestones-content/raw/473d7024e61ba962e68b91cf50477b45f3b9358f/content/emerald.png",
		"description": "Building this game turned into a monolithic challenge. I wanted to build a match 3 system, but being pretty bad with mathematics I had to find an alternative approach. In the end, I went for a physics engine and object collision to overcome the challenge of the logic. Although the game is playable, the final result was far from ideal and in retrospective, I would look to decrease the memory usage.",
		"date": "2011 Aug",
		"button": "https://www.kongregate.com/games/zerosimms/emerald-beach"
	},
	{
		"title": "Leg it",
		"icon": "game",
		"image": "https://bitbucket.org/zerosimms/milestones-content/raw/6f76d4ff395abb2cee2d6f0a0ae3cf3dfda98df8/content/legit.png",
		"description": "So here is my first ever game created by the wonderful Dark Basic Pro. This has been a learning curve for me and been great fun. To keep things simple I tried to keep my game simple and I'm rather proud of the outcome.",
		"date": "2011 Mar",
		"button": "https://forum.thegamecreators.com/thread/183341"
	}
]